A Comparative Analysis: Assessing the Impact of Gender, Weight and Education on High Cholesterol Status – Lingzhu Shen
…
RIAGENDR
Binary
Gender

BPQ080
Binary
Doctor told you - high cholesterol level

3.2 Analytic Tibble

tibble(data_clean)

# A tibble: 7,663 x 5
     SEQN RIAGENDR DMDEDUC2     WHD020 BPQ080
    <dbl> <fct>    <fct>         <dbl> <fct> 
 1 109266 F        College Grad    210 Yes   
 2 109271 M        Less than HS    222 Yes   
 3 109273 M        Some College    165 No    
 4 109274 M        Some College    219 Yes   
 5 109282 M        College Grad    185 Yes   
 6 109284 F        Less than HS    178 Yes   
 7 109286 F        College Grad    142 No    
 8 109290 F        College Grad    155 No    
 9 109291 F        College Grad    148 No    
10 109292 M        HS Grad         185 Yes   
# i 7,653 more rows
…
